<svg width="12" height="12" viewBox="0 0 12 12" fill="none" xmlns="http://www.w3.org/2000/svg">
<path d="M11.7044 5.28721L6.70857 0.285132C6.61355 0.194054 6.50149 0.122659 6.37885 0.0750447C6.13558 -0.0250149 5.86273 -0.0250149 5.61947 0.0750447C5.49682 0.122659 5.38477 0.194054 5.28974 0.285132L0.293872 5.28721C0.0404225 5.54097 -0.0585606 5.91084 0.0342082 6.25749C0.126977 6.60414 0.397404 6.8749 0.743622 6.96779C1.08984 7.06067 1.45925 6.96156 1.7127 6.7078L4.99998 3.40643V10.9996C4.99998 11.5521 5.44733 12 5.99916 12C6.55099 12 6.99833 11.5521 6.99833 10.9996V3.40643L10.2856 6.7078C10.4732 6.89719 10.7286 7.00372 10.995 7.00372C11.2614 7.00372 11.5168 6.89719 11.7044 6.7078C11.8936 6.51996 12 6.26425 12 5.99751C12 5.73076 11.8936 5.47506 11.7044 5.28721Z" fill="#207BBD"/>
</svg>
